<?xml version="1.0" encoding="utf-8"?>
<!-- Generator: Adobe Illustrator 19.0.0, SVG Export Plug-In . SVG Version: 6.00 Build 0)  -->
<svg version="1.1" id="Layer_3" xmlns="http://www.w3.org/2000/svg" xmlns:xlink="http://www.w3.org/1999/xlink" x="0px" y="0px"
	 viewBox="497 220.8 393.8 350.4" style="enable-background:new 497 220.8 393.8 350.4;" xml:space="preserve">
<style type="text/css">
	.st0{fill:url(#XMLID_2_);}
	.st1{fill:#231F20;}
</style>
<g id="XMLID_235_">
	
		<linearGradient id="XMLID_2_" gradientUnits="userSpaceOnUse" x1="693.95" y1="747.0718" x2="693.95" y2="199.0739" gradientTransform="matrix(1 0 0 -1 0 792)">
		<stop  offset="0" style="stop-color:#F0A321"/>
		<stop  offset="1" style="stop-color:#F0582E"/>
	</linearGradient>
	<path id="XMLID_259_" class="st0" d="M537.1,404.9v-31.8h18.3v13.5l61.2-61.2l68.4,68.7l68.7-68.7l55,55v-20.7h24.9v45.6l30.9,30.9
		c3-12.9,4.6-26.4,4.6-40.2c0-96.8-78.5-175.2-175.2-175.2S518.8,299.2,518.8,396c0,8.6,0.6,17.1,1.8,25.4L537.1,404.9z"/>
	<path id="XMLID_520_" class="st1" d="M616.5,496.2v-33.7l53.9-53.9l-53.7-54L497,474.3l34.5-12.5c26,64.2,88.9,109.4,162.4,109.4
		c66.6,0,124.6-37.2,154.2-92l42.7,17L753.7,359L616.5,496.2z M618.9,379.3c7,0,12.7,5.7,12.7,12.7h-12.7V379.3z M618.9,397h12.7
		v12.7h-12.7V397z M614.1,409.6h-12.7V397h12.7V409.6z M614.1,392h-12.7c0-7,5.7-12.7,12.7-12.7V392z M750.5,435.7h-17.1v-17.1h17.1
		V435.7z M750.5,411.8h-17.1c0-9.5,7.7-17.1,17.1-17.1V411.8z M757,394.7c9.5,0,17.1,7.7,17.1,17.1H757V394.7z M757,418.5h17.1v17.1
		H757V418.5z"/>
</g>
</svg>
